{
  "project_info": {
    "project_number": "107122391603",
    "firebase_url": "https://barfinder-832d2.firebaseio.com",
    "project_id": "barfinder-832d2",
    "storage_bucket": "barfinder-832d2.appspot.com"
  },
  "client": [
    {
      "client_info": {
        "mobilesdk_app_id": "1:107122391603:android:fbaba4af8331f038780146",
        "android_client_info": {
          "package_name": "cz.mobile"
        }
      },
      "oauth_client": [
        {
          "client_id": "107122391603-d1oumhbungtbbircb2qqm76uj3ku35b6.apps.googleusercontent.com",
          "client_type": 1,
          "android_info": {
            "package_name": "cz.mobile",
            "certificate_hash": "2b1e62f014f92bf48b86172f896fd8ca8b60b841"
          }
        },
        {
          "client_id": "107122391603-uo0cqqi13fmqo8b9nlggig6aci9c53g1.apps.googleusercontent.com",
          "client_type": 3
        }
      ],
      "api_key": [
        {
          "current_key": "AIzaSyDvb7zMoXpNTNla-TMA9vOYodiGCq9bOws"
        }
      ],
      "services": {
        "appinvite_service": {
          "other_platform_oauth_client": [
            {
              "client_id": "107122391603-uo0cqqi13fmqo8b9nlggig6aci9c53g1.apps.googleusercontent.com",
              "client_type": 3
            }
          ]
        }
      }
    }
  ],
  "configuration_version": "1"
}